﻿<?xml version="1.0" encoding="UTF-8"?>
<TestRun id="c0b2432d-f94f-4cc4-8764-7995f35513c1" name="frossard@MELBOURNE 2012-03-28 22:30:14" runUser="melbourne\frossard" xmlns="http://microsoft.com/schemas/VisualStudio/TeamTest/2010">
  <TestSettings name="Local" id="cfd897c1-90d4-428c-a329-dbd3c82bbda6">
    <Description>These are default test settings for a local test run.</Description>
    <Deployment enabled="false" runDeploymentRoot="frossard_MELBOURNE 2012-03-28 22_30_14">
      <DeploymentItem filename="D:\Workspace\Projects\WEBDAV\WEBDAV\prototipo\temp\ProvaDeConceito\ConsoleApplication1\ConsoleApplication1\Output\Debug\WebDavSync.exe" />
    </Deployment>
    <Execution>
      <TestTypeSpecific />
      <AgentRule name="Execution Agents">
      </AgentRule>
    </Execution>
  </TestSettings>
  <Times creation="2012-03-28T22:30:14.5796000-03:00" queuing="2012-03-28T22:30:14.6146000-03:00" start="2012-03-28T22:30:14.6246000-03:00" finish="2012-03-28T22:30:47.6756000-03:00" />
  <ResultSummary outcome="Failed">
    <Counters total="26" executed="26" passed="25" error="0" failed="1" timeout="0" aborted="0" inconclusive="0" passedButRunAborted="0" notRunnable="0" notExecuted="0" disconnected="0" warning="0" completed="0" inProgress="0" pending="0" />
  </ResultSummary>
  <TestDefinitions>
    <UnitTest name="importFilePropertiesListFromXML" storage="d:\workspace\projects\webdav\webdav\prototipo\temp\provadeconceito\consoleapplication1\consoleapplication1\webdavtests\bin\debug\webdavtests.dll" id="1aa8fbd1-9c2b-9629-9c84-d2ff532a3880">
      <Execution id="663e0a00-b361-44f4-ab07-c08784ef8c80" />
      <TestMethod codeBase="D:/Workspace/Projects/WEBDAV/WEBDAV/prototipo/temp/ProvaDeConceito/ConsoleApplication1/ConsoleApplication1/WEBDAVTests/bin/Debug/WEBDAVTests.DLL" adapterTypeName="Microsoft.VisualStudio.TestTools.TestTypes.Unit.UnitTestAdapter, Microsoft.VisualStudio.QualityTools.Tips.UnitTest.Adapter, Version=10.0.0.0, Culture=neutral, PublicKeyToken=b03f5f7f11d50a3a" className="WEBDAVTests.XmlWebDAVConverterUtilTest, WEBDAVTests, Version=1.0.0.0, Culture=neutral, PublicKeyToken=null" name="importFilePropertiesListFromXML" />
    </UnitTest>
    <UnitTest name="CreateDirTest" storage="d:\workspace\projects\webdav\webdav\prototipo\temp\provadeconceito\consoleapplication1\consoleapplication1\webdavtests\bin\debug\webdavtests.dll" id="122ec909-e839-f477-a12c-1d8b880163f7">
      <Execution id="ae8bed5c-a09f-4277-bedb-e35ac9528103" />
      <TestMethod codeBase="D:/Workspace/Projects/WEBDAV/WEBDAV/prototipo/temp/ProvaDeConceito/ConsoleApplication1/ConsoleApplication1/WEBDAVTests/bin/Debug/WEBDAVTests.DLL" adapterTypeName="Microsoft.VisualStudio.TestTools.TestTypes.Unit.UnitTestAdapter, Microsoft.VisualStudio.QualityTools.Tips.UnitTest.Adapter, Version=10.0.0.0, Culture=neutral, PublicKeyToken=b03f5f7f11d50a3a" className="WEBDAVTests.WebDAVClientFacadeTest, WEBDAVTests, Version=1.0.0.0, Culture=neutral, PublicKeyToken=null" name="CreateDirTest" />
    </UnitTest>
    <UnitTest name="exportFilePropertiesListToXMLTest" storage="d:\workspace\projects\webdav\webdav\prototipo\temp\provadeconceito\consoleapplication1\consoleapplication1\webdavtests\bin\debug\webdavtests.dll" id="916111c7-7be2-8218-c886-4eb50fbde3d6">
      <Execution id="30e8c5f1-d071-4ba0-b8c6-5a2f9fbc00e4" />
      <TestMethod codeBase="D:/Workspace/Projects/WEBDAV/WEBDAV/prototipo/temp/ProvaDeConceito/ConsoleApplication1/ConsoleApplication1/WEBDAVTests/bin/Debug/WEBDAVTests.DLL" adapterTypeName="Microsoft.VisualStudio.TestTools.TestTypes.Unit.UnitTestAdapter, Microsoft.VisualStudio.QualityTools.Tips.UnitTest.Adapter, Version=10.0.0.0, Culture=neutral, PublicKeyToken=b03f5f7f11d50a3a" className="WEBDAVTests.XmlWebDAVConverterUtilTest, WEBDAVTests, Version=1.0.0.0, Culture=neutral, PublicKeyToken=null" name="exportFilePropertiesListToXMLTest" />
    </UnitTest>
    <UnitTest name="extractDirectoryPathTest" storage="d:\workspace\projects\webdav\webdav\prototipo\temp\provadeconceito\consoleapplication1\consoleapplication1\webdavtests\bin\debug\webdavtests.dll" id="20a3c985-d5be-a47a-cb3b-ec0aebe01db7">
      <Execution id="874a008b-841b-4547-be9e-f01a86882bda" />
      <TestMethod codeBase="D:/Workspace/Projects/WEBDAV/WEBDAV/prototipo/temp/ProvaDeConceito/ConsoleApplication1/ConsoleApplication1/WEBDAVTests/bin/Debug/WEBDAVTests.DLL" adapterTypeName="Microsoft.VisualStudio.TestTools.TestTypes.Unit.UnitTestAdapter, Microsoft.VisualStudio.QualityTools.Tips.UnitTest.Adapter, Version=10.0.0.0, Culture=neutral, PublicKeyToken=b03f5f7f11d50a3a" className="WEBDAVTests.FilePropertiesUtilTest, WEBDAVTests, Version=1.0.0.0, Culture=neutral, PublicKeyToken=null" name="extractDirectoryPathTest" />
    </UnitTest>
    <UnitTest name="deleteOldestLocalSnapshotsTest" storage="d:\workspace\projects\webdav\webdav\prototipo\temp\provadeconceito\consoleapplication1\consoleapplication1\webdavtests\bin\debug\webdavtests.dll" id="bb4cdfea-51ed-41b1-dd6c-6112cf5cac29">
      <Execution id="93bbe6fb-16c8-444e-abca-6eb9eec4b420" />
      <TestMethod codeBase="D:/Workspace/Projects/WEBDAV/WEBDAV/prototipo/temp/ProvaDeConceito/ConsoleApplication1/ConsoleApplication1/WEBDAVTests/bin/Debug/WEBDAVTests.DLL" adapterTypeName="Microsoft.VisualStudio.TestTools.TestTypes.Unit.UnitTestAdapter, Microsoft.VisualStudio.QualityTools.Tips.UnitTest.Adapter, Version=10.0.0.0, Culture=neutral, PublicKeyToken=b03f5f7f11d50a3a" className="WEBDAVTests.SnapshotManagerTest, WEBDAVTests, Version=1.0.0.0, Culture=neutral, PublicKeyToken=null" name="deleteOldestLocalSnapshotsTest" />
    </UnitTest>
    <UnitTest name="discoverServerChangesTest" storage="d:\workspace\projects\webdav\webdav\prototipo\temp\provadeconceito\consoleapplication1\consoleapplication1\webdavtests\bin\debug\webdavtests.dll" id="3f3ce9ef-1a46-7181-e5e1-389c6c2be176">
      <Execution id="084f6d08-df10-4358-b8f1-59170f7de2ab" />
      <TestMethod codeBase="D:/Workspace/Projects/WEBDAV/WEBDAV/prototipo/temp/ProvaDeConceito/ConsoleApplication1/ConsoleApplication1/WEBDAVTests/bin/Debug/WEBDAVTests.DLL" adapterTypeName="Microsoft.VisualStudio.TestTools.TestTypes.Unit.UnitTestAdapter, Microsoft.VisualStudio.QualityTools.Tips.UnitTest.Adapter, Version=10.0.0.0, Culture=neutral, PublicKeyToken=b03f5f7f11d50a3a" className="WEBDAVTests.ChangeManagerTest, WEBDAVTests, Version=1.0.0.0, Culture=neutral, PublicKeyToken=null" name="discoverServerChangesTest" />
    </UnitTest>
    <UnitTest name="saveServerSnapshotTest" storage="d:\workspace\projects\webdav\webdav\prototipo\temp\provadeconceito\consoleapplication1\consoleapplication1\webdavtests\bin\debug\webdavtests.dll" id="7779a92c-06a7-d4f9-b8cd-bb5cbdb9db69">
      <Execution id="a0f88605-0fae-4230-a018-da63083607a1" />
      <TestMethod codeBase="D:/Workspace/Projects/WEBDAV/WEBDAV/prototipo/temp/ProvaDeConceito/ConsoleApplication1/ConsoleApplication1/WEBDAVTests/bin/Debug/WEBDAVTests.DLL" adapterTypeName="Microsoft.VisualStudio.TestTools.TestTypes.Unit.UnitTestAdapter, Microsoft.VisualStudio.QualityTools.Tips.UnitTest.Adapter, Version=10.0.0.0, Culture=neutral, PublicKeyToken=b03f5f7f11d50a3a" className="WEBDAVTests.SnapshotManagerTest, WEBDAVTests, Version=1.0.0.0, Culture=neutral, PublicKeyToken=null" name="saveServerSnapshotTest" />
    </UnitTest>
    <UnitTest name="loadOldestServerSnapshotTest" storage="d:\workspace\projects\webdav\webdav\prototipo\temp\provadeconceito\consoleapplication1\consoleapplication1\webdavtests\bin\debug\webdavtests.dll" id="94fbcba7-b735-1023-197f-b2ed23a4a8df">
      <Execution id="e3eb1ce4-a366-40d6-ae0f-bb1157290aa3" />
      <TestMethod codeBase="D:/Workspace/Projects/WEBDAV/WEBDAV/prototipo/temp/ProvaDeConceito/ConsoleApplication1/ConsoleApplication1/WEBDAVTests/bin/Debug/WEBDAVTests.DLL" adapterTypeName="Microsoft.VisualStudio.TestTools.TestTypes.Unit.UnitTestAdapter, Microsoft.VisualStudio.QualityTools.Tips.UnitTest.Adapter, Version=10.0.0.0, Culture=neutral, PublicKeyToken=b03f5f7f11d50a3a" className="WEBDAVTests.SnapshotManagerTest, WEBDAVTests, Version=1.0.0.0, Culture=neutral, PublicKeyToken=null" name="loadOldestServerSnapshotTest" />
    </UnitTest>
    <UnitTest name="importFilePropertiesFromXMLTest" storage="d:\workspace\projects\webdav\webdav\prototipo\temp\provadeconceito\consoleapplication1\consoleapplication1\webdavtests\bin\debug\webdavtests.dll" id="e34bc5b1-5650-e4b4-281e-0829aabc6c34">
      <Execution id="69fd9616-81f2-4b8b-9a48-ebdeaf75fb00" />
      <TestMethod codeBase="D:/Workspace/Projects/WEBDAV/WEBDAV/prototipo/temp/ProvaDeConceito/ConsoleApplication1/ConsoleApplication1/WEBDAVTests/bin/Debug/WEBDAVTests.DLL" adapterTypeName="Microsoft.VisualStudio.TestTools.TestTypes.Unit.UnitTestAdapter, Microsoft.VisualStudio.QualityTools.Tips.UnitTest.Adapter, Version=10.0.0.0, Culture=neutral, PublicKeyToken=b03f5f7f11d50a3a" className="WEBDAVTests.XmlWebDAVConverterUtilTest, WEBDAVTests, Version=1.0.0.0, Culture=neutral, PublicKeyToken=null" name="importFilePropertiesFromXMLTest" />
    </UnitTest>
    <UnitTest name="exportFilePropertiesToXMLTest" storage="d:\workspace\projects\webdav\webdav\prototipo\temp\provadeconceito\consoleapplication1\consoleapplication1\webdavtests\bin\debug\webdavtests.dll" id="ac885f49-542e-a1b6-cd36-283622a20ed1">
      <Execution id="9e9152dc-dcd4-4ed3-8da8-727c7a006231" />
      <TestMethod codeBase="D:/Workspace/Projects/WEBDAV/WEBDAV/prototipo/temp/ProvaDeConceito/ConsoleApplication1/ConsoleApplication1/WEBDAVTests/bin/Debug/WEBDAVTests.DLL" adapterTypeName="Microsoft.VisualStudio.TestTools.TestTypes.Unit.UnitTestAdapter, Microsoft.VisualStudio.QualityTools.Tips.UnitTest.Adapter, Version=10.0.0.0, Culture=neutral, PublicKeyToken=b03f5f7f11d50a3a" className="WEBDAVTests.XmlWebDAVConverterUtilTest, WEBDAVTests, Version=1.0.0.0, Culture=neutral, PublicKeyToken=null" name="exportFilePropertiesToXMLTest" />
    </UnitTest>
    <UnitTest name="authenticateTest" storage="d:\workspace\projects\webdav\webdav\prototipo\temp\provadeconceito\consoleapplication1\consoleapplication1\webdavtests\bin\debug\webdavtests.dll" id="fb91d4f5-6735-106c-eee7-be41f8926d89">
      <Execution id="63f0b3ab-0309-447c-a0ff-1a1c19499e29" />
      <TestMethod codeBase="D:/Workspace/Projects/WEBDAV/WEBDAV/prototipo/temp/ProvaDeConceito/ConsoleApplication1/ConsoleApplication1/WEBDAVTests/bin/Debug/WEBDAVTests.DLL" adapterTypeName="Microsoft.VisualStudio.TestTools.TestTypes.Unit.UnitTestAdapter, Microsoft.VisualStudio.QualityTools.Tips.UnitTest.Adapter, Version=10.0.0.0, Culture=neutral, PublicKeyToken=b03f5f7f11d50a3a" className="WEBDAVTests.WebDAVClientFacadeTest, WEBDAVTests, Version=1.0.0.0, Culture=neutral, PublicKeyToken=null" name="authenticateTest" />
    </UnitTest>
    <UnitTest name="importFilePropertiesFromXMLTest" storage="d:\workspace\projects\webdav\webdav\prototipo\temp\provadeconceito\consoleapplication1\consoleapplication1\webdavtests\bin\debug\webdavtests.dll" id="8242e17c-7958-4e8c-cd90-e4d34329f4d7">
      <Execution id="9cd13c31-0b3f-4601-80cf-9d8a4bed76eb" />
      <TestMethod codeBase="D:/Workspace/Projects/WEBDAV/WEBDAV/prototipo/temp/ProvaDeConceito/ConsoleApplication1/ConsoleApplication1/WEBDAVTests/bin/Debug/WEBDAVTests.DLL" adapterTypeName="Microsoft.VisualStudio.TestTools.TestTypes.Unit.UnitTestAdapter, Microsoft.VisualStudio.QualityTools.Tips.UnitTest.Adapter, Version=10.0.0.0, Culture=neutral, PublicKeyToken=b03f5f7f11d50a3a" className="WEBDAVTests.XmlFilePropertiesConverterUtilTest, WEBDAVTests, Version=1.0.0.0, Culture=neutral, PublicKeyToken=null" name="importFilePropertiesFromXMLTest" />
    </UnitTest>
    <UnitTest name="syncTest" storage="d:\workspace\projects\webdav\webdav\prototipo\temp\provadeconceito\consoleapplication1\consoleapplication1\webdavtests\bin\debug\webdavtests.dll" id="02b16e20-64b8-2f1b-406d-65e8c53bc3b8">
      <Execution id="7fdb5ba6-bab9-4978-9e12-b3f707f29993" />
      <TestMethod codeBase="D:/Workspace/Projects/WEBDAV/WEBDAV/prototipo/temp/ProvaDeConceito/ConsoleApplication1/ConsoleApplication1/WEBDAVTests/bin/Debug/WEBDAVTests.DLL" adapterTypeName="Microsoft.VisualStudio.TestTools.TestTypes.Unit.UnitTestAdapter, Microsoft.VisualStudio.QualityTools.Tips.UnitTest.Adapter, Version=10.0.0.0, Culture=neutral, PublicKeyToken=b03f5f7f11d50a3a" className="WEBDAVTests.SyncManagerTest, WEBDAVTests, Version=1.0.0.0, Culture=neutral, PublicKeyToken=null" name="syncTest" />
    </UnitTest>
    <UnitTest name="importFilePropertiesListFromXML" storage="d:\workspace\projects\webdav\webdav\prototipo\temp\provadeconceito\consoleapplication1\consoleapplication1\webdavtests\bin\debug\webdavtests.dll" id="cd98ef02-447b-f643-4940-701cf05c61b0">
      <Execution id="69686cc4-0243-46ed-b88a-4b029cd0b1cb" />
      <TestMethod codeBase="D:/Workspace/Projects/WEBDAV/WEBDAV/prototipo/temp/ProvaDeConceito/ConsoleApplication1/ConsoleApplication1/WEBDAVTests/bin/Debug/WEBDAVTests.DLL" adapterTypeName="Microsoft.VisualStudio.TestTools.TestTypes.Unit.UnitTestAdapter, Microsoft.VisualStudio.QualityTools.Tips.UnitTest.Adapter, Version=10.0.0.0, Culture=neutral, PublicKeyToken=b03f5f7f11d50a3a" className="WEBDAVTests.XmlFilePropertiesConverterUtilTest, WEBDAVTests, Version=1.0.0.0, Culture=neutral, PublicKeyToken=null" name="importFilePropertiesListFromXML" />
    </UnitTest>
    <UnitTest name="exportFilePropertiesToXMLTest" storage="d:\workspace\projects\webdav\webdav\prototipo\temp\provadeconceito\consoleapplication1\consoleapplication1\webdavtests\bin\debug\webdavtests.dll" id="8c60aafb-3dcd-8acb-03b7-5dda041a952a">
      <Execution id="c132f759-b134-4de3-b384-4b561409ebaf" />
      <TestMethod codeBase="D:/Workspace/Projects/WEBDAV/WEBDAV/prototipo/temp/ProvaDeConceito/ConsoleApplication1/ConsoleApplication1/WEBDAVTests/bin/Debug/WEBDAVTests.DLL" adapterTypeName="Microsoft.VisualStudio.TestTools.TestTypes.Unit.UnitTestAdapter, Microsoft.VisualStudio.QualityTools.Tips.UnitTest.Adapter, Version=10.0.0.0, Culture=neutral, PublicKeyToken=b03f5f7f11d50a3a" className="WEBDAVTests.XmlFilePropertiesConverterUtilTest, WEBDAVTests, Version=1.0.0.0, Culture=neutral, PublicKeyToken=null" name="exportFilePropertiesToXMLTest" />
    </UnitTest>
    <UnitTest name="discoverLocalChangesTest" storage="d:\workspace\projects\webdav\webdav\prototipo\temp\provadeconceito\consoleapplication1\consoleapplication1\webdavtests\bin\debug\webdavtests.dll" id="a1be811a-831a-33fb-28e3-961be2ede80d">
      <Execution id="b22aa7a1-452a-4346-8c6b-5c65491a32c8" />
      <TestMethod codeBase="D:/Workspace/Projects/WEBDAV/WEBDAV/prototipo/temp/ProvaDeConceito/ConsoleApplication1/ConsoleApplication1/WEBDAVTests/bin/Debug/WEBDAVTests.DLL" adapterTypeName="Microsoft.VisualStudio.TestTools.TestTypes.Unit.UnitTestAdapter, Microsoft.VisualStudio.QualityTools.Tips.UnitTest.Adapter, Version=10.0.0.0, Culture=neutral, PublicKeyToken=b03f5f7f11d50a3a" className="WEBDAVTests.ChangeManagerTest, WEBDAVTests, Version=1.0.0.0, Culture=neutral, PublicKeyToken=null" name="discoverLocalChangesTest" />
    </UnitTest>
    <UnitTest name="exportFilePropertiesListToXMLTest" storage="d:\workspace\projects\webdav\webdav\prototipo\temp\provadeconceito\consoleapplication1\consoleapplication1\webdavtests\bin\debug\webdavtests.dll" id="12c557d8-da1c-3d35-de13-f87259ada552">
      <Execution id="77f9b08b-0239-4719-b26c-c14e39e60f6b" />
      <TestMethod codeBase="D:/Workspace/Projects/WEBDAV/WEBDAV/prototipo/temp/ProvaDeConceito/ConsoleApplication1/ConsoleApplication1/WEBDAVTests/bin/Debug/WEBDAVTests.DLL" adapterTypeName="Microsoft.VisualStudio.TestTools.TestTypes.Unit.UnitTestAdapter, Microsoft.VisualStudio.QualityTools.Tips.UnitTest.Adapter, Version=10.0.0.0, Culture=neutral, PublicKeyToken=b03f5f7f11d50a3a" className="WEBDAVTests.XmlFilePropertiesConverterUtilTest, WEBDAVTests, Version=1.0.0.0, Culture=neutral, PublicKeyToken=null" name="exportFilePropertiesListToXMLTest" />
    </UnitTest>
    <UnitTest name="extractNameTest" storage="d:\workspace\projects\webdav\webdav\prototipo\temp\provadeconceito\consoleapplication1\consoleapplication1\webdavtests\bin\debug\webdavtests.dll" id="134220b8-2f0b-75b3-6cc2-71a1309e186a">
      <Execution id="f57ca1a0-9ed9-49c1-9663-b18861f596fe" />
      <TestMethod codeBase="D:/Workspace/Projects/WEBDAV/WEBDAV/prototipo/temp/ProvaDeConceito/ConsoleApplication1/ConsoleApplication1/WEBDAVTests/bin/Debug/WEBDAVTests.DLL" adapterTypeName="Microsoft.VisualStudio.TestTools.TestTypes.Unit.UnitTestAdapter, Microsoft.VisualStudio.QualityTools.Tips.UnitTest.Adapter, Version=10.0.0.0, Culture=neutral, PublicKeyToken=b03f5f7f11d50a3a" className="WEBDAVTests.FilePropertiesUtilTest, WEBDAVTests, Version=1.0.0.0, Culture=neutral, PublicKeyToken=null" name="extractNameTest" />
    </UnitTest>
    <UnitTest name="loadOldestLocalSnapshotTest" storage="d:\workspace\projects\webdav\webdav\prototipo\temp\provadeconceito\consoleapplication1\consoleapplication1\webdavtests\bin\debug\webdavtests.dll" id="d5141293-a53c-9cb0-a95f-e499d535098f">
      <Execution id="93d23ce3-d3f8-4773-9de9-7dc0975fa2e6" />
      <TestMethod codeBase="D:/Workspace/Projects/WEBDAV/WEBDAV/prototipo/temp/ProvaDeConceito/ConsoleApplication1/ConsoleApplication1/WEBDAVTests/bin/Debug/WEBDAVTests.DLL" adapterTypeName="Microsoft.VisualStudio.TestTools.TestTypes.Unit.UnitTestAdapter, Microsoft.VisualStudio.QualityTools.Tips.UnitTest.Adapter, Version=10.0.0.0, Culture=neutral, PublicKeyToken=b03f5f7f11d50a3a" className="WEBDAVTests.SnapshotManagerTest, WEBDAVTests, Version=1.0.0.0, Culture=neutral, PublicKeyToken=null" name="loadOldestLocalSnapshotTest" />
    </UnitTest>
    <UnitTest name="listFiles" storage="d:\workspace\projects\webdav\webdav\prototipo\temp\provadeconceito\consoleapplication1\consoleapplication1\webdavtests\bin\debug\webdavtests.dll" id="04cbd354-2b78-fa91-6621-392d2e88770f">
      <Execution id="f2b8562a-f76b-40db-bd60-5c71c3b29cf5" />
      <TestMethod codeBase="D:/Workspace/Projects/WEBDAV/WEBDAV/prototipo/temp/ProvaDeConceito/ConsoleApplication1/ConsoleApplication1/WEBDAVTests/bin/Debug/WEBDAVTests.DLL" adapterTypeName="Microsoft.VisualStudio.TestTools.TestTypes.Unit.UnitTestAdapter, Microsoft.VisualStudio.QualityTools.Tips.UnitTest.Adapter, Version=10.0.0.0, Culture=neutral, PublicKeyToken=b03f5f7f11d50a3a" className="WEBDAVTests.WebDAVClientFacadeTest, WEBDAVTests, Version=1.0.0.0, Culture=neutral, PublicKeyToken=null" name="listFiles" />
    </UnitTest>
    <UnitTest name="deleteAndExistsTest" storage="d:\workspace\projects\webdav\webdav\prototipo\temp\provadeconceito\consoleapplication1\consoleapplication1\webdavtests\bin\debug\webdavtests.dll" id="6c5a0dd0-c3cb-5385-4fb1-be93e9a9a5a5">
      <Execution id="206bbeb1-f5b7-4343-9358-3009a74dc50b" />
      <TestMethod codeBase="D:/Workspace/Projects/WEBDAV/WEBDAV/prototipo/temp/ProvaDeConceito/ConsoleApplication1/ConsoleApplication1/WEBDAVTests/bin/Debug/WEBDAVTests.DLL" adapterTypeName="Microsoft.VisualStudio.TestTools.TestTypes.Unit.UnitTestAdapter, Microsoft.VisualStudio.QualityTools.Tips.UnitTest.Adapter, Version=10.0.0.0, Culture=neutral, PublicKeyToken=b03f5f7f11d50a3a" className="WEBDAVTests.WebDAVClientFacadeTest, WEBDAVTests, Version=1.0.0.0, Culture=neutral, PublicKeyToken=null" name="deleteAndExistsTest" />
    </UnitTest>
    <UnitTest name="uploadTest" storage="d:\workspace\projects\webdav\webdav\prototipo\temp\provadeconceito\consoleapplication1\consoleapplication1\webdavtests\bin\debug\webdavtests.dll" id="fc7a4eab-b476-c091-2806-f184269ee0a5">
      <Execution id="98b3d879-fc8c-4b4d-9520-db2fa969df88" />
      <TestMethod codeBase="D:/Workspace/Projects/WEBDAV/WEBDAV/prototipo/temp/ProvaDeConceito/ConsoleApplication1/ConsoleApplication1/WEBDAVTests/bin/Debug/WEBDAVTests.DLL" adapterTypeName="Microsoft.VisualStudio.TestTools.TestTypes.Unit.UnitTestAdapter, Microsoft.VisualStudio.QualityTools.Tips.UnitTest.Adapter, Version=10.0.0.0, Culture=neutral, PublicKeyToken=b03f5f7f11d50a3a" className="WEBDAVTests.WebDAVClientFacadeTest, WEBDAVTests, Version=1.0.0.0, Culture=neutral, PublicKeyToken=null" name="uploadTest" />
    </UnitTest>
    <UnitTest name="loadTest" storage="d:\workspace\projects\webdav\webdav\prototipo\temp\provadeconceito\consoleapplication1\consoleapplication1\webdavtests\bin\debug\webdavtests.dll" id="9f0c3641-a607-0a46-2cc5-accc85e98dec">
      <Execution id="b93bd5da-f43a-429d-a8d0-4985c1f3abac" />
      <TestMethod codeBase="D:/Workspace/Projects/WEBDAV/WEBDAV/prototipo/temp/ProvaDeConceito/ConsoleApplication1/ConsoleApplication1/WEBDAVTests/bin/Debug/WEBDAVTests.DLL" adapterTypeName="Microsoft.VisualStudio.TestTools.TestTypes.Unit.UnitTestAdapter, Microsoft.VisualStudio.QualityTools.Tips.UnitTest.Adapter, Version=10.0.0.0, Culture=neutral, PublicKeyToken=b03f5f7f11d50a3a" className="WEBDAVTests.DirectoryConfPropertiesTest, WEBDAVTests, Version=1.0.0.0, Culture=neutral, PublicKeyToken=null" name="loadTest" />
    </UnitTest>
    <UnitTest name="saveLocalSnapshotTest" storage="d:\workspace\projects\webdav\webdav\prototipo\temp\provadeconceito\consoleapplication1\consoleapplication1\webdavtests\bin\debug\webdavtests.dll" id="22184e3c-4c3e-54d5-b353-fdf56b2222ec">
      <Execution id="a7072621-316b-48d5-9a91-766602b0b519" />
      <TestMethod codeBase="D:/Workspace/Projects/WEBDAV/WEBDAV/prototipo/temp/ProvaDeConceito/ConsoleApplication1/ConsoleApplication1/WEBDAVTests/bin/Debug/WEBDAVTests.DLL" adapterTypeName="Microsoft.VisualStudio.TestTools.TestTypes.Unit.UnitTestAdapter, Microsoft.VisualStudio.QualityTools.Tips.UnitTest.Adapter, Version=10.0.0.0, Culture=neutral, PublicKeyToken=b03f5f7f11d50a3a" className="WEBDAVTests.SnapshotManagerTest, WEBDAVTests, Version=1.0.0.0, Culture=neutral, PublicKeyToken=null" name="saveLocalSnapshotTest" />
    </UnitTest>
    <UnitTest name="downloadTest" storage="d:\workspace\projects\webdav\webdav\prototipo\temp\provadeconceito\consoleapplication1\consoleapplication1\webdavtests\bin\debug\webdavtests.dll" id="95dee999-a7bf-a29d-963f-ceaa835063f8">
      <Execution id="48a1188c-b391-4f77-b8e9-365433fe5dde" />
      <TestMethod codeBase="D:/Workspace/Projects/WEBDAV/WEBDAV/prototipo/temp/ProvaDeConceito/ConsoleApplication1/ConsoleApplication1/WEBDAVTests/bin/Debug/WEBDAVTests.DLL" adapterTypeName="Microsoft.VisualStudio.TestTools.TestTypes.Unit.UnitTestAdapter, Microsoft.VisualStudio.QualityTools.Tips.UnitTest.Adapter, Version=10.0.0.0, Culture=neutral, PublicKeyToken=b03f5f7f11d50a3a" className="WEBDAVTests.WebDAVClientFacadeTest, WEBDAVTests, Version=1.0.0.0, Culture=neutral, PublicKeyToken=null" name="downloadTest" />
    </UnitTest>
    <UnitTest name="listFilesTest" storage="d:\workspace\projects\webdav\webdav\prototipo\temp\provadeconceito\consoleapplication1\consoleapplication1\webdavtests\bin\debug\webdavtests.dll" id="8107b917-d653-e7d5-7291-fea8d88f037f">
      <Execution id="f8d1962e-7642-4e62-bcdf-8d54e4a20ae3" />
      <TestMethod codeBase="D:/Workspace/Projects/WEBDAV/WEBDAV/prototipo/temp/ProvaDeConceito/ConsoleApplication1/ConsoleApplication1/WEBDAVTests/bin/Debug/WEBDAVTests.DLL" adapterTypeName="Microsoft.VisualStudio.TestTools.TestTypes.Unit.UnitTestAdapter, Microsoft.VisualStudio.QualityTools.Tips.UnitTest.Adapter, Version=10.0.0.0, Culture=neutral, PublicKeyToken=b03f5f7f11d50a3a" className="WEBDAVTests.LocalFacadeTest, WEBDAVTests, Version=1.0.0.0, Culture=neutral, PublicKeyToken=null" name="listFilesTest" />
    </UnitTest>
  </TestDefinitions>
  <TestLists>
    <TestList name="Results Not in a List" id="8c84fa94-04c1-424b-9868-57a2d4851a1d" />
    <TestList name="All Loaded Results" id="19431567-8539-422a-85d7-44ee4e166bda" />
  </TestLists>
  <TestEntries>
    <TestEntry testId="ac885f49-542e-a1b6-cd36-283622a20ed1" executionId="9e9152dc-dcd4-4ed3-8da8-727c7a006231" testListId="8c84fa94-04c1-424b-9868-57a2d4851a1d" />
    <TestEntry testId="916111c7-7be2-8218-c886-4eb50fbde3d6" executionId="30e8c5f1-d071-4ba0-b8c6-5a2f9fbc00e4" testListId="8c84fa94-04c1-424b-9868-57a2d4851a1d" />
    <TestEntry testId="8242e17c-7958-4e8c-cd90-e4d34329f4d7" executionId="9cd13c31-0b3f-4601-80cf-9d8a4bed76eb" testListId="8c84fa94-04c1-424b-9868-57a2d4851a1d" />
    <TestEntry testId="e34bc5b1-5650-e4b4-281e-0829aabc6c34" executionId="69fd9616-81f2-4b8b-9a48-ebdeaf75fb00" testListId="8c84fa94-04c1-424b-9868-57a2d4851a1d" />
    <TestEntry testId="3f3ce9ef-1a46-7181-e5e1-389c6c2be176" executionId="084f6d08-df10-4358-b8f1-59170f7de2ab" testListId="8c84fa94-04c1-424b-9868-57a2d4851a1d" />
    <TestEntry testId="12c557d8-da1c-3d35-de13-f87259ada552" executionId="77f9b08b-0239-4719-b26c-c14e39e60f6b" testListId="8c84fa94-04c1-424b-9868-57a2d4851a1d" />
    <TestEntry testId="134220b8-2f0b-75b3-6cc2-71a1309e186a" executionId="f57ca1a0-9ed9-49c1-9663-b18861f596fe" testListId="8c84fa94-04c1-424b-9868-57a2d4851a1d" />
    <TestEntry testId="8107b917-d653-e7d5-7291-fea8d88f037f" executionId="f8d1962e-7642-4e62-bcdf-8d54e4a20ae3" testListId="8c84fa94-04c1-424b-9868-57a2d4851a1d" />
    <TestEntry testId="94fbcba7-b735-1023-197f-b2ed23a4a8df" executionId="e3eb1ce4-a366-40d6-ae0f-bb1157290aa3" testListId="8c84fa94-04c1-424b-9868-57a2d4851a1d" />
    <TestEntry testId="fc7a4eab-b476-c091-2806-f184269ee0a5" executionId="98b3d879-fc8c-4b4d-9520-db2fa969df88" testListId="8c84fa94-04c1-424b-9868-57a2d4851a1d" />
    <TestEntry testId="cd98ef02-447b-f643-4940-701cf05c61b0" executionId="69686cc4-0243-46ed-b88a-4b029cd0b1cb" testListId="8c84fa94-04c1-424b-9868-57a2d4851a1d" />
    <TestEntry testId="1aa8fbd1-9c2b-9629-9c84-d2ff532a3880" executionId="663e0a00-b361-44f4-ab07-c08784ef8c80" testListId="8c84fa94-04c1-424b-9868-57a2d4851a1d" />
    <TestEntry testId="20a3c985-d5be-a47a-cb3b-ec0aebe01db7" executionId="874a008b-841b-4547-be9e-f01a86882bda" testListId="8c84fa94-04c1-424b-9868-57a2d4851a1d" />
    <TestEntry testId="bb4cdfea-51ed-41b1-dd6c-6112cf5cac29" executionId="93bbe6fb-16c8-444e-abca-6eb9eec4b420" testListId="8c84fa94-04c1-424b-9868-57a2d4851a1d" />
    <TestEntry testId="a1be811a-831a-33fb-28e3-961be2ede80d" executionId="b22aa7a1-452a-4346-8c6b-5c65491a32c8" testListId="8c84fa94-04c1-424b-9868-57a2d4851a1d" />
    <TestEntry testId="8c60aafb-3dcd-8acb-03b7-5dda041a952a" executionId="c132f759-b134-4de3-b384-4b561409ebaf" testListId="8c84fa94-04c1-424b-9868-57a2d4851a1d" />
    <TestEntry testId="6c5a0dd0-c3cb-5385-4fb1-be93e9a9a5a5" executionId="206bbeb1-f5b7-4343-9358-3009a74dc50b" testListId="8c84fa94-04c1-424b-9868-57a2d4851a1d" />
    <TestEntry testId="22184e3c-4c3e-54d5-b353-fdf56b2222ec" executionId="a7072621-316b-48d5-9a91-766602b0b519" testListId="8c84fa94-04c1-424b-9868-57a2d4851a1d" />
    <TestEntry testId="122ec909-e839-f477-a12c-1d8b880163f7" executionId="ae8bed5c-a09f-4277-bedb-e35ac9528103" testListId="8c84fa94-04c1-424b-9868-57a2d4851a1d" />
    <TestEntry testId="95dee999-a7bf-a29d-963f-ceaa835063f8" executionId="48a1188c-b391-4f77-b8e9-365433fe5dde" testListId="8c84fa94-04c1-424b-9868-57a2d4851a1d" />
    <TestEntry testId="d5141293-a53c-9cb0-a95f-e499d535098f" executionId="93d23ce3-d3f8-4773-9de9-7dc0975fa2e6" testListId="8c84fa94-04c1-424b-9868-57a2d4851a1d" />
    <TestEntry testId="7779a92c-06a7-d4f9-b8cd-bb5cbdb9db69" executionId="a0f88605-0fae-4230-a018-da63083607a1" testListId="8c84fa94-04c1-424b-9868-57a2d4851a1d" />
    <TestEntry testId="fb91d4f5-6735-106c-eee7-be41f8926d89" executionId="63f0b3ab-0309-447c-a0ff-1a1c19499e29" testListId="8c84fa94-04c1-424b-9868-57a2d4851a1d" />
    <TestEntry testId="9f0c3641-a607-0a46-2cc5-accc85e98dec" executionId="b93bd5da-f43a-429d-a8d0-4985c1f3abac" testListId="8c84fa94-04c1-424b-9868-57a2d4851a1d" />
    <TestEntry testId="04cbd354-2b78-fa91-6621-392d2e88770f" executionId="f2b8562a-f76b-40db-bd60-5c71c3b29cf5" testListId="8c84fa94-04c1-424b-9868-57a2d4851a1d" />
    <TestEntry testId="02b16e20-64b8-2f1b-406d-65e8c53bc3b8" executionId="7fdb5ba6-bab9-4978-9e12-b3f707f29993" testListId="8c84fa94-04c1-424b-9868-57a2d4851a1d" />
  </TestEntries>
  <Results>
    <UnitTestResult executionId="9e9152dc-dcd4-4ed3-8da8-727c7a006231" testId="ac885f49-542e-a1b6-cd36-283622a20ed1" testName="exportFilePropertiesToXMLTest" computerName="MELBOURNE" duration="00:00:00.0169324" startTime="2012-03-28T22:30:14.6266000-03:00" endTime="2012-03-28T22:30:14.8406000-03:00" testType="13cdc9d9-ddb5-4fa4-a97d-d965ccfc6d4b" outcome="Passed" testListId="8c84fa94-04c1-424b-9868-57a2d4851a1d" relativeResultsDirectory="9e9152dc-dcd4-4ed3-8da8-727c7a006231">
    </UnitTestResult>
    <UnitTestResult executionId="30e8c5f1-d071-4ba0-b8c6-5a2f9fbc00e4" testId="916111c7-7be2-8218-c886-4eb50fbde3d6" testName="exportFilePropertiesListToXMLTest" computerName="MELBOURNE" duration="00:00:00.0018722" startTime="2012-03-28T22:30:14.8416000-03:00" endTime="2012-03-28T22:30:14.8486000-03:00" testType="13cdc9d9-ddb5-4fa4-a97d-d965ccfc6d4b" outcome="Passed" testListId="8c84fa94-04c1-424b-9868-57a2d4851a1d" relativeResultsDirectory="30e8c5f1-d071-4ba0-b8c6-5a2f9fbc00e4">
    </UnitTestResult>
    <UnitTestResult executionId="9cd13c31-0b3f-4601-80cf-9d8a4bed76eb" testId="8242e17c-7958-4e8c-cd90-e4d34329f4d7" testName="importFilePropertiesFromXMLTest" computerName="MELBOURNE" duration="00:00:00.0050894" startTime="2012-03-28T22:30:14.8496000-03:00" endTime="2012-03-28T22:30:14.8596000-03:00" testType="13cdc9d9-ddb5-4fa4-a97d-d965ccfc6d4b" outcome="Passed" testListId="8c84fa94-04c1-424b-9868-57a2d4851a1d" relativeResultsDirectory="9cd13c31-0b3f-4601-80cf-9d8a4bed76eb">
    </UnitTestResult>
    <UnitTestResult executionId="69fd9616-81f2-4b8b-9a48-ebdeaf75fb00" testId="e34bc5b1-5650-e4b4-281e-0829aabc6c34" testName="importFilePropertiesFromXMLTest" computerName="MELBOURNE" duration="00:00:00.0014083" startTime="2012-03-28T22:30:14.8596000-03:00" endTime="2012-03-28T22:30:14.8656000-03:00" testType="13cdc9d9-ddb5-4fa4-a97d-d965ccfc6d4b" outcome="Passed" testListId="8c84fa94-04c1-424b-9868-57a2d4851a1d" relativeResultsDirectory="69fd9616-81f2-4b8b-9a48-ebdeaf75fb00">
    </UnitTestResult>
    <UnitTestResult executionId="084f6d08-df10-4358-b8f1-59170f7de2ab" testId="3f3ce9ef-1a46-7181-e5e1-389c6c2be176" testName="discoverServerChangesTest" computerName="MELBOURNE" duration="00:00:17.4703972" startTime="2012-03-28T22:30:14.8656000-03:00" endTime="2012-03-28T22:30:32.3466000-03:00" testType="13cdc9d9-ddb5-4fa4-a97d-d965ccfc6d4b" outcome="Passed" testListId="8c84fa94-04c1-424b-9868-57a2d4851a1d" relativeResultsDirectory="084f6d08-df10-4358-b8f1-59170f7de2ab">
    </UnitTestResult>
    <UnitTestResult executionId="77f9b08b-0239-4719-b26c-c14e39e60f6b" testId="12c557d8-da1c-3d35-de13-f87259ada552" testName="exportFilePropertiesListToXMLTest" computerName="MELBOURNE" duration="00:00:00.0032253" startTime="2012-03-28T22:30:32.3496000-03:00" endTime="2012-03-28T22:30:32.3626000-03:00" testType="13cdc9d9-ddb5-4fa4-a97d-d965ccfc6d4b" outcome="Passed" testListId="8c84fa94-04c1-424b-9868-57a2d4851a1d" relativeResultsDirectory="77f9b08b-0239-4719-b26c-c14e39e60f6b">
    </UnitTestResult>
    <UnitTestResult executionId="f57ca1a0-9ed9-49c1-9663-b18861f596fe" testId="134220b8-2f0b-75b3-6cc2-71a1309e186a" testName="extractNameTest" computerName="MELBOURNE" duration="00:00:00.0011554" startTime="2012-03-28T22:30:32.3636000-03:00" endTime="2012-03-28T22:30:32.3736000-03:00" testType="13cdc9d9-ddb5-4fa4-a97d-d965ccfc6d4b" outcome="Passed" testListId="8c84fa94-04c1-424b-9868-57a2d4851a1d" relativeResultsDirectory="f57ca1a0-9ed9-49c1-9663-b18861f596fe">
    </UnitTestResult>
    <UnitTestResult executionId="f8d1962e-7642-4e62-bcdf-8d54e4a20ae3" testId="8107b917-d653-e7d5-7291-fea8d88f037f" testName="listFilesTest" computerName="MELBOURNE" duration="00:00:00.0771101" startTime="2012-03-28T22:30:32.3746000-03:00" endTime="2012-03-28T22:30:32.4596000-03:00" testType="13cdc9d9-ddb5-4fa4-a97d-d965ccfc6d4b" outcome="Passed" testListId="8c84fa94-04c1-424b-9868-57a2d4851a1d" relativeResultsDirectory="f8d1962e-7642-4e62-bcdf-8d54e4a20ae3">
    </UnitTestResult>
    <UnitTestResult executionId="e3eb1ce4-a366-40d6-ae0f-bb1157290aa3" testId="94fbcba7-b735-1023-197f-b2ed23a4a8df" testName="loadOldestServerSnapshotTest" computerName="MELBOURNE" duration="00:00:00.0033908" startTime="2012-03-28T22:30:32.4606000-03:00" endTime="2012-03-28T22:30:32.4686000-03:00" testType="13cdc9d9-ddb5-4fa4-a97d-d965ccfc6d4b" outcome="Passed" testListId="8c84fa94-04c1-424b-9868-57a2d4851a1d" relativeResultsDirectory="e3eb1ce4-a366-40d6-ae0f-bb1157290aa3">
    </UnitTestResult>
    <UnitTestResult executionId="98b3d879-fc8c-4b4d-9520-db2fa969df88" testId="fc7a4eab-b476-c091-2806-f184269ee0a5" testName="uploadTest" computerName="MELBOURNE" duration="00:00:01.1548331" startTime="2012-03-28T22:30:32.4696000-03:00" endTime="2012-03-28T22:30:33.6336000-03:00" testType="13cdc9d9-ddb5-4fa4-a97d-d965ccfc6d4b" outcome="Passed" testListId="8c84fa94-04c1-424b-9868-57a2d4851a1d" relativeResultsDirectory="98b3d879-fc8c-4b4d-9520-db2fa969df88">
    </UnitTestResult>
    <UnitTestResult executionId="69686cc4-0243-46ed-b88a-4b029cd0b1cb" testId="cd98ef02-447b-f643-4940-701cf05c61b0" testName="importFilePropertiesListFromXML" computerName="MELBOURNE" duration="00:00:00.0054238" startTime="2012-03-28T22:30:33.6356000-03:00" endTime="2012-03-28T22:30:33.6526000-03:00" testType="13cdc9d9-ddb5-4fa4-a97d-d965ccfc6d4b" outcome="Passed" testListId="8c84fa94-04c1-424b-9868-57a2d4851a1d" relativeResultsDirectory="69686cc4-0243-46ed-b88a-4b029cd0b1cb">
    </UnitTestResult>
    <UnitTestResult executionId="663e0a00-b361-44f4-ab07-c08784ef8c80" testId="1aa8fbd1-9c2b-9629-9c84-d2ff532a3880" testName="importFilePropertiesListFromXML" computerName="MELBOURNE" duration="00:00:00.0023918" startTime="2012-03-28T22:30:33.6546000-03:00" endTime="2012-03-28T22:30:33.6706000-03:00" testType="13cdc9d9-ddb5-4fa4-a97d-d965ccfc6d4b" outcome="Passed" testListId="8c84fa94-04c1-424b-9868-57a2d4851a1d" relativeResultsDirectory="663e0a00-b361-44f4-ab07-c08784ef8c80">
    </UnitTestResult>
    <UnitTestResult executionId="874a008b-841b-4547-be9e-f01a86882bda" testId="20a3c985-d5be-a47a-cb3b-ec0aebe01db7" testName="extractDirectoryPathTest" computerName="MELBOURNE" duration="00:00:00.0010243" startTime="2012-03-28T22:30:33.6806000-03:00" endTime="2012-03-28T22:30:33.6886000-03:00" testType="13cdc9d9-ddb5-4fa4-a97d-d965ccfc6d4b" outcome="Passed" testListId="8c84fa94-04c1-424b-9868-57a2d4851a1d" relativeResultsDirectory="874a008b-841b-4547-be9e-f01a86882bda">
    </UnitTestResult>
    <UnitTestResult executionId="93bbe6fb-16c8-444e-abca-6eb9eec4b420" testId="bb4cdfea-51ed-41b1-dd6c-6112cf5cac29" testName="deleteOldestLocalSnapshotsTest" computerName="MELBOURNE" duration="00:00:00.1694576" startTime="2012-03-28T22:30:33.6896000-03:00" endTime="2012-03-28T22:30:33.8646000-03:00" testType="13cdc9d9-ddb5-4fa4-a97d-d965ccfc6d4b" outcome="Failed" testListId="8c84fa94-04c1-424b-9868-57a2d4851a1d" relativeResultsDirectory="93bbe6fb-16c8-444e-abca-6eb9eec4b420">
      <Output>
        <ErrorInfo>
          <Message>Assert.IsTrue failed. </Message>
          <StackTrace>   at WEBDAVTests.SnapshotManagerTest.deleteOldestLocalSnapshotsTest() in D:\Workspace\Projects\WEBDAV\WEBDAV\prototipo\temp\ProvaDeConceito\ConsoleApplication1\ConsoleApplication1\WEBDAVTests\SnapshotManagerTest.cs:line 169
</StackTrace>
        </ErrorInfo>
      </Output>
    </UnitTestResult>
    <UnitTestResult executionId="b22aa7a1-452a-4346-8c6b-5c65491a32c8" testId="a1be811a-831a-33fb-28e3-961be2ede80d" testName="discoverLocalChangesTest" computerName="MELBOURNE" duration="00:00:00.0123060" startTime="2012-03-28T22:30:33.8656000-03:00" endTime="2012-03-28T22:30:33.8826000-03:00" testType="13cdc9d9-ddb5-4fa4-a97d-d965ccfc6d4b" outcome="Passed" testListId="8c84fa94-04c1-424b-9868-57a2d4851a1d" relativeResultsDirectory="b22aa7a1-452a-4346-8c6b-5c65491a32c8">
    </UnitTestResult>
    <UnitTestResult executionId="c132f759-b134-4de3-b384-4b561409ebaf" testId="8c60aafb-3dcd-8acb-03b7-5dda041a952a" testName="exportFilePropertiesToXMLTest" computerName="MELBOURNE" duration="00:00:00.0003566" startTime="2012-03-28T22:30:33.8836000-03:00" endTime="2012-03-28T22:30:33.8876000-03:00" testType="13cdc9d9-ddb5-4fa4-a97d-d965ccfc6d4b" outcome="Passed" testListId="8c84fa94-04c1-424b-9868-57a2d4851a1d" relativeResultsDirectory="c132f759-b134-4de3-b384-4b561409ebaf">
    </UnitTestResult>
    <UnitTestResult executionId="206bbeb1-f5b7-4343-9358-3009a74dc50b" testId="6c5a0dd0-c3cb-5385-4fb1-be93e9a9a5a5" testName="deleteAndExistsTest" computerName="MELBOURNE" duration="00:00:03.2193398" startTime="2012-03-28T22:30:33.8886000-03:00" endTime="2012-03-28T22:30:37.1146000-03:00" testType="13cdc9d9-ddb5-4fa4-a97d-d965ccfc6d4b" outcome="Passed" testListId="8c84fa94-04c1-424b-9868-57a2d4851a1d" relativeResultsDirectory="206bbeb1-f5b7-4343-9358-3009a74dc50b">
    </UnitTestResult>
    <UnitTestResult executionId="a7072621-316b-48d5-9a91-766602b0b519" testId="22184e3c-4c3e-54d5-b353-fdf56b2222ec" testName="saveLocalSnapshotTest" computerName="MELBOURNE" duration="00:00:00.1112234" startTime="2012-03-28T22:30:37.1176000-03:00" endTime="2012-03-28T22:30:37.2366000-03:00" testType="13cdc9d9-ddb5-4fa4-a97d-d965ccfc6d4b" outcome="Passed" testListId="8c84fa94-04c1-424b-9868-57a2d4851a1d" relativeResultsDirectory="a7072621-316b-48d5-9a91-766602b0b519">
    </UnitTestResult>
    <UnitTestResult executionId="ae8bed5c-a09f-4277-bedb-e35ac9528103" testId="122ec909-e839-f477-a12c-1d8b880163f7" testName="CreateDirTest" computerName="MELBOURNE" duration="00:00:03.6915855" startTime="2012-03-28T22:30:37.2376000-03:00" endTime="2012-03-28T22:30:40.9356000-03:00" testType="13cdc9d9-ddb5-4fa4-a97d-d965ccfc6d4b" outcome="Passed" testListId="8c84fa94-04c1-424b-9868-57a2d4851a1d" relativeResultsDirectory="ae8bed5c-a09f-4277-bedb-e35ac9528103">
    </UnitTestResult>
    <UnitTestResult executionId="48a1188c-b391-4f77-b8e9-365433fe5dde" testId="95dee999-a7bf-a29d-963f-ceaa835063f8" testName="downloadTest" computerName="MELBOURNE" duration="00:00:01.6819823" startTime="2012-03-28T22:30:40.9376000-03:00" endTime="2012-03-28T22:30:42.6306000-03:00" testType="13cdc9d9-ddb5-4fa4-a97d-d965ccfc6d4b" outcome="Passed" testListId="8c84fa94-04c1-424b-9868-57a2d4851a1d" relativeResultsDirectory="48a1188c-b391-4f77-b8e9-365433fe5dde">
    </UnitTestResult>
    <UnitTestResult executionId="93d23ce3-d3f8-4773-9de9-7dc0975fa2e6" testId="d5141293-a53c-9cb0-a95f-e499d535098f" testName="loadOldestLocalSnapshotTest" computerName="MELBOURNE" duration="00:00:00.0244407" startTime="2012-03-28T22:30:42.6336000-03:00" endTime="2012-03-28T22:30:42.6696000-03:00" testType="13cdc9d9-ddb5-4fa4-a97d-d965ccfc6d4b" outcome="Passed" testListId="8c84fa94-04c1-424b-9868-57a2d4851a1d" relativeResultsDirectory="93d23ce3-d3f8-4773-9de9-7dc0975fa2e6">
    </UnitTestResult>
    <UnitTestResult executionId="a0f88605-0fae-4230-a018-da63083607a1" testId="7779a92c-06a7-d4f9-b8cd-bb5cbdb9db69" testName="saveServerSnapshotTest" computerName="MELBOURNE" duration="00:00:00.7142446" startTime="2012-03-28T22:30:42.6716000-03:00" endTime="2012-03-28T22:30:43.3976000-03:00" testType="13cdc9d9-ddb5-4fa4-a97d-d965ccfc6d4b" outcome="Passed" testListId="8c84fa94-04c1-424b-9868-57a2d4851a1d" relativeResultsDirectory="a0f88605-0fae-4230-a018-da63083607a1">
    </UnitTestResult>
    <UnitTestResult executionId="63f0b3ab-0309-447c-a0ff-1a1c19499e29" testId="fb91d4f5-6735-106c-eee7-be41f8926d89" testName="authenticateTest" computerName="MELBOURNE" duration="00:00:00.5808073" startTime="2012-03-28T22:30:43.3996000-03:00" endTime="2012-03-28T22:30:43.9906000-03:00" testType="13cdc9d9-ddb5-4fa4-a97d-d965ccfc6d4b" outcome="Passed" testListId="8c84fa94-04c1-424b-9868-57a2d4851a1d" relativeResultsDirectory="63f0b3ab-0309-447c-a0ff-1a1c19499e29">
    </UnitTestResult>
    <UnitTestResult executionId="b93bd5da-f43a-429d-a8d0-4985c1f3abac" testId="9f0c3641-a607-0a46-2cc5-accc85e98dec" testName="loadTest" computerName="MELBOURNE" duration="00:00:00.0038604" startTime="2012-03-28T22:30:43.9926000-03:00" endTime="2012-03-28T22:30:44.0176000-03:00" testType="13cdc9d9-ddb5-4fa4-a97d-d965ccfc6d4b" outcome="Passed" testListId="8c84fa94-04c1-424b-9868-57a2d4851a1d" relativeResultsDirectory="b93bd5da-f43a-429d-a8d0-4985c1f3abac">
    </UnitTestResult>
    <UnitTestResult executionId="f2b8562a-f76b-40db-bd60-5c71c3b29cf5" testId="04cbd354-2b78-fa91-6621-392d2e88770f" testName="listFiles" computerName="MELBOURNE" duration="00:00:00.6537139" startTime="2012-03-28T22:30:44.0206000-03:00" endTime="2012-03-28T22:30:44.6846000-03:00" testType="13cdc9d9-ddb5-4fa4-a97d-d965ccfc6d4b" outcome="Passed" testListId="8c84fa94-04c1-424b-9868-57a2d4851a1d" relativeResultsDirectory="f2b8562a-f76b-40db-bd60-5c71c3b29cf5">
    </UnitTestResult>
    <UnitTestResult executionId="7fdb5ba6-bab9-4978-9e12-b3f707f29993" testId="02b16e20-64b8-2f1b-406d-65e8c53bc3b8" testName="syncTest" computerName="MELBOURNE" duration="00:00:02.9365081" startTime="2012-03-28T22:30:44.6866000-03:00" endTime="2012-03-28T22:30:47.6396000-03:00" testType="13cdc9d9-ddb5-4fa4-a97d-d965ccfc6d4b" outcome="Passed" testListId="8c84fa94-04c1-424b-9868-57a2d4851a1d" relativeResultsDirectory="7fdb5ba6-bab9-4978-9e12-b3f707f29993">
    </UnitTestResult>
  </Results>
</TestRun>