﻿<?xml version="1.0" encoding="UTF-8"?>
<TestRun id="d695e6ee-dd4c-450e-aaff-689fa857b7e7" name="frossard@MELBOURNE 2012-03-28 21:16:15" runUser="melbourne\frossard" xmlns="http://microsoft.com/schemas/VisualStudio/TeamTest/2010">
  <TestSettings name="Local" id="cfd897c1-90d4-428c-a329-dbd3c82bbda6">
    <Description>These are default test settings for a local test run.</Description>
    <Deployment enabled="false" runDeploymentRoot="frossard_MELBOURNE 2012-03-28 21_16_15">
      <DeploymentItem filename="D:\Workspace\Projects\WEBDAV\WEBDAV\prototipo\temp\ProvaDeConceito\ConsoleApplication1\ConsoleApplication1\Output\Debug\WebDavSync.exe" />
    </Deployment>
    <Execution>
      <TestTypeSpecific />
      <AgentRule name="Execution Agents">
      </AgentRule>
    </Execution>
  </TestSettings>
  <Times creation="2012-03-28T21:16:15.1086000-03:00" queuing="2012-03-28T21:16:16.0906000-03:00" start="2012-03-28T21:16:16.2066000-03:00" finish="2012-03-28T21:17:24.4756000-03:00" />
  <ResultSummary outcome="Completed">
    <Counters total="1" executed="1" passed="1" error="0" failed="0" timeout="0" aborted="0" inconclusive="0" passedButRunAborted="0" notRunnable="0" notExecuted="0" disconnected="0" warning="0" completed="0" inProgress="0" pending="0" />
  </ResultSummary>
  <TestDefinitions>
    <UnitTest name="syncTest" storage="d:\workspace\projects\webdav\webdav\prototipo\temp\provadeconceito\consoleapplication1\consoleapplication1\webdavtests\bin\debug\webdavtests.dll" id="02b16e20-64b8-2f1b-406d-65e8c53bc3b8">
      <Execution id="3d72ccba-85a9-43d5-9767-4d2e8b599069" />
      <TestMethod codeBase="D:/Workspace/Projects/WEBDAV/WEBDAV/prototipo/temp/ProvaDeConceito/ConsoleApplication1/ConsoleApplication1/WEBDAVTests/bin/Debug/WEBDAVTests.DLL" adapterTypeName="Microsoft.VisualStudio.TestTools.TestTypes.Unit.UnitTestAdapter, Microsoft.VisualStudio.QualityTools.Tips.UnitTest.Adapter, Version=10.0.0.0, Culture=neutral, PublicKeyToken=b03f5f7f11d50a3a" className="WEBDAVTests.SyncManagerTest, WEBDAVTests, Version=1.0.0.0, Culture=neutral, PublicKeyToken=null" name="syncTest" />
    </UnitTest>
  </TestDefinitions>
  <TestLists>
    <TestList name="Results Not in a List" id="8c84fa94-04c1-424b-9868-57a2d4851a1d" />
    <TestList name="All Loaded Results" id="19431567-8539-422a-85d7-44ee4e166bda" />
  </TestLists>
  <TestEntries>
    <TestEntry testId="02b16e20-64b8-2f1b-406d-65e8c53bc3b8" executionId="3d72ccba-85a9-43d5-9767-4d2e8b599069" testListId="8c84fa94-04c1-424b-9868-57a2d4851a1d" />
  </TestEntries>
  <Results>
    <UnitTestResult executionId="3d72ccba-85a9-43d5-9767-4d2e8b599069" testId="02b16e20-64b8-2f1b-406d-65e8c53bc3b8" testName="syncTest" computerName="MELBOURNE" duration="00:01:07.2276084" startTime="2012-03-28T21:16:16.3146000-03:00" endTime="2012-03-28T21:17:24.3646000-03:00" testType="13cdc9d9-ddb5-4fa4-a97d-d965ccfc6d4b" outcome="Passed" testListId="8c84fa94-04c1-424b-9868-57a2d4851a1d" relativeResultsDirectory="3d72ccba-85a9-43d5-9767-4d2e8b599069">
    </UnitTestResult>
  </Results>
</TestRun>