﻿<?xml version="1.0" encoding="UTF-8"?>
<TestRun id="ed9f5922-614a-4f80-a0bc-077357ffadb2" name="frossard@MELBOURNE 2012-03-28 20:47:13" runUser="melbourne\frossard" xmlns="http://microsoft.com/schemas/VisualStudio/TeamTest/2010">
  <TestSettings name="Local" id="cfd897c1-90d4-428c-a329-dbd3c82bbda6">
    <Description>These are default test settings for a local test run.</Description>
    <Deployment enabled="false" runDeploymentRoot="frossard_MELBOURNE 2012-03-28 20_47_13">
      <DeploymentItem filename="D:\Workspace\Projects\WEBDAV\WEBDAV\prototipo\temp\ProvaDeConceito\ConsoleApplication1\ConsoleApplication1\Output\Debug\WebDavSync.exe" />
    </Deployment>
    <Execution>
      <TestTypeSpecific />
      <AgentRule name="Execution Agents">
      </AgentRule>
    </Execution>
  </TestSettings>
  <Times creation="2012-03-28T20:47:13.1336000-03:00" queuing="2012-03-28T20:47:14.2026000-03:00" start="2012-03-28T20:47:14.3236000-03:00" finish="2012-03-28T20:48:18.2186000-03:00" />
  <ResultSummary outcome="Error">
    <Counters total="1" executed="1" error="0" failed="0" timeout="0" aborted="1" inconclusive="0" passedButRunAborted="0" notRunnable="0" notExecuted="0" disconnected="0" warning="0" passed="0" completed="0" inProgress="0" pending="0" />
    <RunInfos>
      <RunInfo computerName="MELBOURNE" outcome="Error" timestamp="2012-03-28T20:48:18.2166000-03:00">
        <Text>Test host process exited unexpectedly.</Text>
      </RunInfo>
    </RunInfos>
  </ResultSummary>
  <TestDefinitions>
    <UnitTest name="syncTest" storage="d:\workspace\projects\webdav\webdav\prototipo\temp\provadeconceito\consoleapplication1\consoleapplication1\webdavtests\bin\debug\webdavtests.dll" id="02b16e20-64b8-2f1b-406d-65e8c53bc3b8">
      <Execution id="79f9c09c-12b8-44df-87ef-64013c201cd9" />
      <TestMethod codeBase="D:/Workspace/Projects/WEBDAV/WEBDAV/prototipo/temp/ProvaDeConceito/ConsoleApplication1/ConsoleApplication1/WEBDAVTests/bin/Debug/WEBDAVTests.DLL" adapterTypeName="Microsoft.VisualStudio.TestTools.TestTypes.Unit.UnitTestAdapter, Microsoft.VisualStudio.QualityTools.Tips.UnitTest.Adapter, Version=10.0.0.0, Culture=neutral, PublicKeyToken=b03f5f7f11d50a3a" className="WEBDAVTests.SyncManagerTest, WEBDAVTests, Version=1.0.0.0, Culture=neutral, PublicKeyToken=null" name="syncTest" />
    </UnitTest>
  </TestDefinitions>
  <TestLists>
    <TestList name="Results Not in a List" id="8c84fa94-04c1-424b-9868-57a2d4851a1d" />
    <TestList name="All Loaded Results" id="19431567-8539-422a-85d7-44ee4e166bda" />
  </TestLists>
  <TestEntries>
    <TestEntry testId="02b16e20-64b8-2f1b-406d-65e8c53bc3b8" executionId="79f9c09c-12b8-44df-87ef-64013c201cd9" testListId="8c84fa94-04c1-424b-9868-57a2d4851a1d" />
  </TestEntries>
  <Results>
    <UnitTestResult executionId="79f9c09c-12b8-44df-87ef-64013c201cd9" testId="02b16e20-64b8-2f1b-406d-65e8c53bc3b8" testName="syncTest" computerName="MELBOURNE" duration="00:01:03.7610000" startTime="2012-03-28T20:47:14.4576000-03:00" endTime="2012-03-28T20:48:18.2186000-03:00" testType="13cdc9d9-ddb5-4fa4-a97d-d965ccfc6d4b" outcome="Aborted" testListId="8c84fa94-04c1-424b-9868-57a2d4851a1d" relativeResultsDirectory="79f9c09c-12b8-44df-87ef-64013c201cd9">
    </UnitTestResult>
  </Results>
</TestRun>